{"failedCount":1,"prefixedPath":"src\/test\/java\/examples\/users\/users.feature","packageQualifiedName":"src.test.java.examples.users.users","loopIndex":-1,"relativePath":"src\/test\/java\/examples\/users\/users.feature","scenarioResults":[{"sectionIndex":0,"stepResults":[{"result":{"nanos":857000,"millis":0.857,"status":"passed"},"step":{"background":true,"line":3,"prefix":"*","index":0,"text":"url 'https:\/\/reqres.in\/api'"},"stepLog":"18:55:10.088 karate.env system property was: null \n"},{"result":{"nanos":587800,"millis":0.5878,"status":"passed"},"step":{"line":6,"prefix":"Given","index":0,"text":"path '\/users?page=2'"}},{"result":{"nanos":3001599000,"millis":3001.599,"status":"passed"},"step":{"line":7,"prefix":"When","index":1,"text":"method Get"},"stepLog":"18:55:11.151 request:\n1 > GET https:\/\/reqres.in\/api\/users%3Fpage=2\n1 > Host: reqres.in\n1 > Connection: Keep-Alive\n1 > User-Agent: Apache-HttpClient\/4.5.13 (Java\/11.0.12)\n1 > Accept-Encoding: gzip,deflate\n\n\n18:55:13.072 response time in milliseconds: 1890\n1 < 200\n1 < Date: Wed, 27 Jul 2022 13:25:13 GMT\n1 < Content-Type: application\/json; charset=utf-8\n1 < Transfer-Encoding: chunked\n1 < Connection: keep-alive\n1 < X-Powered-By: Express\n1 < Access-Control-Allow-Origin: *\n1 < Etag: W\/\"2c1-N6Rqerxquq2kgQhL51EiSg4x0R8\"\n1 < Via: 1.1 vegur\n1 < Cache-Control: max-age=14400\n1 < CF-Cache-Status: REVALIDATED\n1 < Expect-CT: max-age=604800, report-uri=\"https:\/\/report-uri.cloudflare.com\/cdn-cgi\/beacon\/expect-ct\"\n1 < Report-To: {\"endpoints\":[{\"url\":\"https:\\\/\\\/a.nel.cloudflare.com\\\/report\\\/v3?s=WZrlkxS1WeSKMV49TZJOFwZC68qFo0Y4Gk9FBVvqMeJCItmJNul8l2Q6iCGUJZJk7BKCG3TBgzjG%2FGf5MUjOmaWW5dpQZBx0fjle7us7n6UdbVQi1O1vCSHaHA%3D%3D\"}],\"group\":\"cf-nel\",\"max_age\":604800}\n1 < NEL: {\"success_fraction\":0,\"report_to\":\"cf-nel\",\"max_age\":604800}\n1 < Vary: Accept-Encoding\n1 < Server: cloudflare\n1 < CF-RAY: 7315b3250e4331e7-BOM\n{\"page\":1,\"per_page\":6,\"total\":12,\"total_pages\":2,\"data\":[{\"id\":1,\"name\":\"cerulean\",\"year\":2000,\"color\":\"#98B2D1\",\"pantone_value\":\"15-4020\"},{\"id\":2,\"name\":\"fuchsia rose\",\"year\":2001,\"color\":\"#C74375\",\"pantone_value\":\"17-2031\"},{\"id\":3,\"name\":\"true red\",\"year\":2002,\"color\":\"#BF1932\",\"pantone_value\":\"19-1664\"},{\"id\":4,\"name\":\"aqua sky\",\"year\":2003,\"color\":\"#7BC4C4\",\"pantone_value\":\"14-4811\"},{\"id\":5,\"name\":\"tigerlily\",\"year\":2004,\"color\":\"#E2583E\",\"pantone_value\":\"17-1456\"},{\"id\":6,\"name\":\"blue turquoise\",\"year\":2005,\"color\":\"#53B0AE\",\"pantone_value\":\"15-5217\"}],\"support\":{\"url\":\"https:\/\/reqres.in\/#support-heading\",\"text\":\"To keep ReqRes free, contributions towards server costs are appreciated!\"}}\n\n"},{"result":{"nanos":31901,"millis":0.031901,"status":"passed"},"step":{"line":8,"prefix":"Then","index":2,"text":"status 200"}},{"result":{"nanos":26127799,"errorMessage":"js failed:\n>>>>\n01: karate.log('[print]',Response)\n<<<<\norg.graalvm.polyglot.PolyglotException: ReferenceError: \"Response\" is not defined\n- <js>.:program(Unnamed:1)\n\nsrc\/test\/java\/examples\/users\/users.feature:9","millis":26.127799,"status":"failed"},"step":{"line":9,"prefix":"And","index":3,"text":"print Response"},"stepLog":"18:55:13.197 src\/test\/java\/examples\/users\/users.feature:9\nAnd print Response\njs failed:\n>>>>\n01: karate.log('[print]',Response)\n<<<<\norg.graalvm.polyglot.PolyglotException: ReferenceError: \"Response\" is not defined\n- <js>.:program(Unnamed:1)\n\nsrc\/test\/java\/examples\/users\/users.feature:9\n"}],"line":4,"description":"Get the listed users details","durationMillis":3029.2035,"failed":true,"error":"js failed:\n>>>>\n01: karate.log('[print]',Response)\n<<<<\norg.graalvm.polyglot.PolyglotException: ReferenceError: \"Response\" is not defined\n- <js>.:program(Unnamed:1)\n\nsrc\/test\/java\/examples\/users\/users.feature:9","executorName":"main","name":"","startTime":1658928309870,"refId":"[1:4]","endTime":1658928313197,"exampleIndex":-1}],"callDepth":0,"name":"sample API testing","description":"","resultDate":"2022-07-27 06:55:13 PM","durationMillis":3029.2035,"passedCount":0}